[{
    "title": "2 000 золотых монет",
    "type": "coinProduct",
    "PriceSocial": 59,
    "goldCount": 2000,
    "prevGoldCount": 1800,
    "key": "goldPack1",
    "itemId": 1
}, {
    "title": "3 000 золотых монет",
    "type": "coinProduct",
    "PriceSocial": 89,
    "goldCount": 3000,
    "prevGoldCount": 2600,
    "key": "goldPack2",
    "itemId": 2
}, {
    "title": "7 500 золотых монет",
    "type": "coinProduct",
    "PriceSocial": 199,
    "goldCount": 7500,
    "prevGoldCount": 6000,
    "key": "goldPack3",
    "itemId": 3
}, {
    "title": "45 000 золотых монет",
    "type": "coinProduct",
    "PriceSocial": 999,
    "goldCount": 45000,
    "prevGoldCount": 30000,
    "key": "goldPack4",
    "itemId": 4
}, {
    "title": "1 000 золотых монет",
    "type": "coinProduct",
    "PriceSocial": 29,
    "goldCount": 1000,
    "prevGoldCount": 1000,
    "key": "goldPack5",
    "itemId": 5
}, {
    "title": "20 000 золотых монет",
    "type": "coinProduct",
    "PriceSocial": 499,
    "goldCount": 20000,
    "prevGoldCount": 15000,
    "key": "goldPack6",
    "itemId": 6
}, {
    "title": "Розыгрыш лотереи",
    "type": "spin",
    "PriceSocial": 19,
    "key": "spin",
    "itemId": 7
}, {
    "title": "1 500 золотых монет",
    "type": "spinCoinProduct",
    "PriceSocial": 39,
    "goldCount": 1500,
    "key": "spinPopupGoldPack",
    "itemId": 8
}, {
    "title": "750 золотых монет",
    "type": "offerProduct",
    "PriceSocial": 5,
    "goldCount": 750,
    "prevGoldCount": 150,
    "unlockMission": 1,
    "step": 1,
    "key": "d1",
    "itemId": 9
}, {
    "title": "1 200 золотых монет",
    "type": "offerProduct",
    "PriceSocial": 20,
    "goldCount": 1200,
    "prevGoldCount": 600,
    "unlockMission": 1,
    "step": 2,
    "key": "d2",
    "itemId": 10
}, {
    "title": "5 000 золотых монет",
    "type": "offerProduct",
    "PriceSocial": 100,
    "goldCount": 5000,
    "prevGoldCount": 3000,
    "unlockMission": 1,
    "step": 3,
    "key": "d3",
    "itemId": 11
}, {
    "title": "Цветная бомба",
    "type": "boost",
    "PriceCoins": 200,
    "unlockMissionId": "1_5",
    "probability": 0.015,
    "isOnBoard": "1",
    "key": "colorBomb",
    "itemId": 12
}, {
    "title": "Фейерверк",
    "type": "boost",
    "PriceCoins": 150,
    "unlockMissionId": "2_1",
    "probability": 0.02,
    "isOnBoard": "1",
    "itemId": 13,
    "key": "chineseFirework"
}, {
    "title": "Бомба",
    "type": "boost",
    "PriceCoins": 300,
    "unlockMissionId": "2_3",
    "probability": 0.015,
    "isOnBoard": "1",
    "key": "radialBomb",
    "itemId": 14
}, {
    "title": "Ракета",
    "type": "boost",
    "PriceCoins": 150,
    "unlockMissionId": "2_4",
    "probability": 0.02,
    "isOnBoard": "1",
    "key": "bomb",
    "itemId": 15
}, {
    "title": "+10 доп. ходов",
    "type": "lastExtraMove",
    "PriceCoins": 900,
    "movesToAdd": 10,
    "key": "lastExtraMoveByCoins",
    "itemId": 16
}, {
    "title": "Восстановление сердечек",
    "type": "lifeRefill",
    "PriceCoins": 900,
    "key": "lifeRefill",
    "itemId": 17
}, {
    "title": "Ключ к острову",
    "type": "payGates",
    "PriceCoins": 3000,
    "key": "payGates",
    "itemId": 18
}, {
    "title": "1 500 золотых монет",
    "type": "questProduct",
    "PriceCoins": 0,
    "goldCount": 1500,
    "key": "sq",
    "itemId": 19
}, {
    "title": "Супер Бомба",
    "type": "ingameBoostProduct",
    "items": [[2,900,1000],[3,1200,1500],[5,1800,2500]],
    "key": "ingameRadialBomb",
    "itemId": 20
}, {
    "title": "Супер Фейерверк",
    "type": "ingameBoostProduct",
    "items": [[2,1000,1200],[3,1500,1800],[5,2100,3000]],
    "key": "ingameChineseFirework",
    "itemId": 21
}, {
    "title": "+10 доп. ходов",
    "type": "ingameBoostProduct",
    "items": [[1,900,0],[3,1800,2570]],
    "key": "ingameExtraMoves",
    "itemId": 22
}, {
    "title": "+10 доп. ходов",
    "type": "extraMoves",
    "PriceSocial": 29,
    "movesToAdd": 10,
    "key": "extraMovesBySocial",
    "itemId": 23
}]