[{
    "title": "220 золотых монет",
    "type": "coinProduct",
    "PriceSocial": 10,
    "goldCount": 220,
    "prevGoldCount": 200,
    "key": "goldPack1",
    "itemId": 1
}, {
    "title": "450 золотых монет",
    "type": "coinProduct",
    "PriceSocial": 19,
    "goldCount": 450,
    "prevGoldCount": 375,
    "key": "goldPack2",
    "itemId": 2
}, {
    "title": "720 золотых монет",
    "type": "coinProduct",
    "PriceSocial": 29,
    "goldCount": 720,
    "prevGoldCount": 576,
    "key": "goldPack3",
    "itemId": 3
}, {
    "title": "2 500 золотых монет",
    "type": "coinProduct",
    "PriceSocial": 99,
    "goldCount": 2500,
    "prevGoldCount": 1785,
    "key": "goldPack4",
    "itemId": 4
}, {
    "title": "100 золотых монет",
    "type": "coinProduct",
    "PriceSocial": 5,
    "goldCount": 100,
    "prevGoldCount": 100,
    "key": "goldPack5",
    "itemId": 5
}, {
    "title": "1 200 золотых монет",
    "type": "coinProduct",
    "PriceSocial": 49,
    "goldCount": 1200,
    "prevGoldCount": 923,
    "key": "goldPack6",
    "itemId": 6
}, {
    "title": "Розыгрыш лотереи",
    "type": "spin",
    "PriceSocial": 2,
    "key": "spin",
    "itemId": 7
}, {
    "title": "150 золотых монет",
    "type": "spinCoinProduct",
    "PriceSocial": 4,
    "goldCount": 150,
    "key": "spinPopupGoldPack",
    "itemId": 8
}, {
    "title": "100 золотых монет",
    "type": "offerProduct",
    "PriceSocial": 1,
    "goldCount": 100,
    "prevGoldCount": 40,
    "unlockMission": 1,
    "step": 1,
    "key": "d1",
    "itemId": 9
}, {
    "title": "200 золотых монет",
    "type": "offerProduct",
    "PriceSocial": 5,
    "goldCount": 200,
    "prevGoldCount": 100,
    "unlockMission": 1,
    "step": 2,
    "key": "d2",
    "itemId": 10
}, {
    "title": "1 000 золотых монет",
    "type": "offerProduct",
    "PriceSocial": 20,
    "goldCount": 1000,
    "prevGoldCount": 600,
    "unlockMission": 10000,
    "step": 3,
    "key": "d3",
    "itemId": 11
}, {
    "title": "Цветная бомба",
    "type": "boost",
    "PriceCoins": 50,
    "unlockMissionId": "1_5",
    "probability": 0.015,
    "isOnBoard": "1",
    "key": "colorBomb",
    "itemId": 12
}, {
    "title": "Фейерверк",
    "type": "boost",
    "PriceCoins": 40,
    "unlockMissionId": "2_1",
    "probability": 0.02,
    "isOnBoard": "1",
    "itemId": 13,
    "key": "chineseFirework"
}, {
    "title": "Бомба",
    "type": "boost",
    "PriceCoins": 70,
    "unlockMissionId": "2_3",
    "probability": 0.015,
    "isOnBoard": "1",
    "key": "radialBomb",
    "itemId": 14
}, {
    "title": "Ракета",
    "type": "boost",
    "PriceCoins": 40,
    "unlockMissionId": "2_4",
    "probability": 0.02,
    "isOnBoard": "1",
    "key": "bomb",
    "itemId": 15
}, {
    "title": "+10 доп. ходов",
    "type": "lastExtraMove",
    "PriceCoins": 99,
    "movesToAdd": 10,
    "key": "lastExtraMoveByCoins",
    "itemId": 16
}, {
    "title": "Восстановление сердечек",
    "type": "lifeRefill",
    "PriceCoins": 99,
    "key": "lifeRefill",
    "itemId": 17
}, {
    "title": "Ключ к острову",
    "type": "payGates",
    "PriceCoins": 99,
    "key": "payGates",
    "itemId": 18
}, {
    "title": "50 золотых монет",
    "type": "questProduct",
    "PriceCoins": 0,
    "goldCount": 50,
    "key": "sq",
    "itemId": 19
}, {
    "title": "Супер Бомба",
    "type": "ingameBoostProduct",
    "items": [[1, 80, 0], [3, 160, 228], [5, 240, 400]],
    "key": "ingameRadialBomb",
    "itemId": 20
}, {
    "title": "Супер Фейерверк",
    "type": "ingameBoostProduct",
    "items": [[1, 120, 0], [3, 240, 343], [5, 360, 600]],
    "key": "ingameChineseFirework",
    "itemId": 21
}, {
    "title": "+10 доп. ходов",
    "type": "ingameBoostProduct",
    "items": [[1, 99, 0], [3, 198, 283]],
    "key": "ingameExtraMoves",
    "itemId": 22
}, {
    "title": "+10 доп. ходов",
    "type": "extraMoves",
    "PriceSocial": 3,
    "movesToAdd": 10,
    "key": "extraMovesBySocial",
    "itemId": 23
}, {
    "title": "Кол-во монет при регистрации",
    "type": "startCoins",
    "PriceSocial": 0,
    "goldCount": 200,
    "key": "startCoins",
    "itemId": 24
}]