{
    "version": "6.4",
    "socialNetwork": "VK",
    "appId": 4397026,
    "groupId": 0,
    "serverSecretKey": "yQZVqInpbilPPLYu9IBI",
    "signatureKey": "fb8bff1bd337c4f9289eb9661dcf71dd",
    "testMode": 0,
    "gameState": 1,
    "redisServer": {
        "host": "127.0.0.1",
        "port": 6379,
        "db": 0,
        "pass": "if65obRTeQA"
    },
    "redisStatistic": {
        "host": "127.0.0.1",
        "port": 6379,
        "db": 5,
        "pass": "if65obRTeQA"
    },
    "nodeServer": {
        "host": "https://vk.cats.e-magic.org",
        "port": 8087,
        "sslKey": "",
        "sslCert": ""
    },
    "statServer": "vk.cats.e-magic.org",
    "statisticsServer": "vk.watch.e-magic.org",
    "logDir": "../../logs",
    "partnerSecret": {},
    "developerList": {
        "388964": 1,
        "10282559": 1,
        "16343276": 1,
        "22830864": 1,
        "82542921": 1,
        "180755863": 1,
        "245620072": 1,
        "144416249": 1,
        "87322300": 1
    }
}
