{
    "i1": {
        "starsToUnlock": 12,
        "missionsCount": 6
    },
    "i2": {
        "starsToUnlock": 14,
        "missionsCount": 7
    },
    "i3": {
        "starsToUnlock": 16,
        "missionsCount": 8
    },
    "i4": {
        "starsToUnlock": 18,
        "missionsCount": 9
    },
    "i5": {
        "starsToUnlock": 18,
        "missionsCount": 9
    },
    "i6": {
        "starsToUnlock": 20,
        "missionsCount": 10
    },
    "i7": {
        "starsToUnlock": 22,
        "missionsCount": 11
    },
    "i8": {
        "starsToUnlock": 22,
        "missionsCount": 11
    },
    "i9": {
        "starsToUnlock": 22,
        "missionsCount": 11
    },
    "i10": {
        "starsToUnlock": 22,
        "missionsCount": 12
    },
    "i11": {
        "starsToUnlock": 26,
        "missionsCount": 13
    },
    "i12": {
        "starsToUnlock": 20,
        "missionsCount": 10
    },
    "i13": {
        "starsToUnlock": 24,
        "missionsCount": 12
    }
}